…
## # A tibble: 6 x 5
##   nombre                                             tipo  categoria   lat   lng
##   <chr>                                              <chr> <chr>     <dbl> <dbl>
## 1 Banco de la Nación Argentina                       atm   banca     -32.9 -68.8
## 2 Hospital Central BANCO DE LA NACION ARGENTINA Caj… atm   banca     -32.9 -68.8
## 3 Banelco                                            atm   banca     -32.9 -68.8
## 4 Banelco                                            atm   banca     -32.9 -68.8
## 5 Cajero Automatico Banelco                          atm   banca     -32.9 -68.8
## 6 Citibank                                           bank  banca     -32.9 -68.8

Se trata de lugares en el área urbana de Mendoza, de 93 tipos distintos, agrupados en 12 categorías generales:

count(mdz_poi, categoria, tipo)

## # A tibble: 93 x 3
##    categoria tipo                 n
##    <chr>     <chr>            <int>
##  1 banca     atm                 93
##  2 banca     bank               112
##  3 culto     church             248
##  4 culto     mosque               2
##  5 culto     place_of_worship     4
##  6 culto     synagogue            3
##  7 cultura   art_gallery         14
##  8 cultura   library             18
##  9 cultura   museum              55
## 10 educacion school             890
## # … with 83 more rows
…
