Introducción al Machine Learning - Bits & Bricks
…
propiedades <- read_csv("https://bitsandbricks.github.io/data/visual_intro_machine_learning.csv")

Paso 0: Definir el problema a resolver

¿Para que necesitamos desarrollar un modelo de ML? En este caso, la respuesta es simple: para distinguir las viviendas ubicadas en Nueva York de aquellas localizadas en San Francisco, en base a un listado de propiedades con sus atributos como precio, dormitorios, etc.

Tener claro el objetivo nos va a ayudar a entender cuales son las variables que más importancia van a tener para realizar la clasificación, o “predicción” que nuestro modelo será capaz de realizar.

Paso 1: Explorar de los datos

Revisemos las variables disponibles:

propiedades

## # A tibble: 492 × 8
##    in_sf  beds  bath   price year_built  sqft price_per_sqft elevation
##    <dbl> <dbl> <dbl>   <dbl>      <dbl> <dbl>          <dbl>     <dbl>
##  1     0     2     1  999000       1960  1000            999        10
##  2     0     2     2 2750000       2006  1418           1939         0
##  3     0     2     2 1350000       1900  2150            628         9
##  4     0     1     1  629000       1903   500           1258         9
##  5     0     0     1  439000       1930   500            878        10
##  6     0     0     1  439000       1930   500            878        10
##  7     0     1     1  475000       1920   500            950        10
##  8     0     1     1  975000       1930   900           1083        10
##  9     0     1     1  975000       1930   900           1083        12
## 10     0     2     1 1895000       1921  1000           1895        12
## # … with 482 more rows
…
