Visualizando con R el historial de ubicaciones de Google (parte I)
…
Habiendo identificado cada ciudad, vale la pena agregar dos campos más que van a ser útiles para visualizar la data: país, y tiempo de estadía. Para calcular el tiempo de estadía, asignemos un identificador a cada secuencia de registros consecutivos efectuados en la misma ciudad usando “run-lengh encoding” para luego extraer fecha de inicio y final de cada una. Agregar el país es fácil; sólo necesitamos hacer un join contra una tabla de ciudades y naciones.

runs <- rle(locationdf$CITY_NAME)
estadias <- locationdf %>% 
  mutate(run_id = rep(seq_along(runs$lengths), runs$lengths)) %>% 
  group_by(CITY_NAME, CNTRY_NAME, run_id) %>% 
  summarise(date_in = min(date),
            date_out = max(date)) %>% 
  arrange(date_in) %>% 
  select(-run_id) 

estadias

## Source: local data frame [171 x 4]
## Groups: CITY_NAME, CNTRY_NAME [28]
## 
##                CITY_NAME CNTRY_NAME             date_in
##                    <chr>      <chr>       <S3: POSIXct>
## 1           Buenos Aires  Argentina 2011-04-04 20:31:28
## 2               La Plata  Argentina 2011-05-23 11:04:39
## 3           Buenos Aires  Argentina 2011-05-23 20:34:25
## 4               La Plata  Argentina 2011-06-10 12:27:03
## 5           Buenos Aires  Argentina 2011-06-11 01:14:17
## 6                  Salta  Argentina 2011-08-08 15:38:56
## 7  San Miguel De Tucuman  Argentina 2011-08-10 14:24:08
## 8           Buenos Aires  Argentina 2011-08-11 22:50:24
## 9               La Plata  Argentina 2011-10-05 12:06:48
## 10          Buenos Aires  Argentina 2011-10-05 13:21:20
## # ... with 161 more rows, and 1 more variables: date_out <S3: POSIXct>

Con la data prolija, es fácil hacer un ranking de tiempo pasado en cada ciudad…:

ranking <- estadias %>% 
  mutate(semanas = difftime(date_out,
                         date_in,
                         units = "weeks")) %>% 
  group_by(CITY_NAME, CNTRY_NAME) %>% 
  summarise(total_semanas = round(sum(semanas), 1)) %>% 
  arrange(desc(total_semanas))
ranking

## Source: local data frame [28 x 3]
## Groups: CITY_NAME [28]
## 
##          CITY_NAME     CNTRY_NAME total_semanas
##              <chr>          <chr>        <time>
## 1     Buenos Aires      Argentina   185.5 weeks
## 2           Boston  United States    83.3 weeks
## 3         New York  United States     4.0 weeks
## 4          Cordoba      Argentina     0.9 weeks
## 5         La Plata      Argentina     0.9 weeks
## 6        Frankfurt        Germany     0.7 weeks
## 7          Rosario      Argentina     0.7 weeks
## 8        Reykjavik        Iceland     0.6 weeks
## 9       Birmingham United Kingdom     0.5 weeks
## 10 Washington D.C.  United States     0.5 weeks
## # ... with 18 more rows
…
